        ____    ____  _______ .__   __. .___________.    ___           _______.
        \   \  /   / |   ____||  \ |  | |           |   /   \         /       |
         \   \/   /  |  |__   |   \|  | `---|  |----`  /  ^  \       |   (----`
          \      /   |   __|  |  . `  |     |  |      /  /_\  \       \   \
           \    /    |  |____ |  |\   |     |  |     /  _____  \  .----)   |
            \__/     |_______||__| \__|     |__|    /__/     \__\ |_______/
 __    __    ______     _______      ___      .______              ___      .______    __
|  |  |  |  /  __  \   /  _____|    /   \     |   _  \            /   \     |   _  \  |  |
|  |__|  | |  |  |  | |  |  __     /  ^  \    |  |_)  |          /  ^  \    |  |_)  | |  |
|   __   | |  |  |  | |  | |_ |   /  /_\  \   |      /          /  /_\  \   |   ___/  |  |
|  |  |  | |  `--'  | |  |__| |  /  _____  \  |  |\  \----.    /  _____  \  |  |      |  |
|__|  |__|  \______/   \______| /__/     \__\ | _| `._____|   /__/     \__\ | _|      |__|
